DeltaPDU-MIB::dpduIdentManufacturer.0 	(.1.3.6.1.4.1.2254.2.32.1.1.0) = 	STRING: "Delta"
DeltaPDU-MIB::dpduIdentName.0 	(.1.3.6.1.4.1.2254.2.32.1.2.0) = 	""
DeltaPDU-MIB::dpduIdentAttachedDevices.0 	(.1.3.6.1.4.1.2254.2.32.1.3.0) = 	""
DeltaPDU-MIB::dpduIdentAgentSoftwareVersion.0 	(.1.3.6.1.4.1.2254.2.32.1.4.0) = 	STRING: "01.12.12d"
DeltaPDU-MIB::dpduPDUNum.0 	(.1.3.6.1.4.1.2254.2.32.1.5.0) = 	INTEGER: 1
DeltaPDU-MIB::dpduIdentPDUID.1 	(.1.3.6.1.4.1.2254.2.32.1.6.1.1.1) = 	INTEGER: 0
DeltaPDU-MIB::dpduIdentEnabled.1 	(.1.3.6.1.4.1.2254.2.32.1.6.1.2.1) = 	INTEGER: on(1)
DeltaPDU-MIB::dpduIdentModel.1 	(.1.3.6.1.4.1.2254.2.32.1.6.1.3.1) = 	STRING: "PDU1315"
DeltaPDU-MIB::dpduIdentSerialNumber.1 	(.1.3.6.1.4.1.2254.2.32.1.6.1.4.1) = 	STRING: "Y0310600063WA"
DeltaPDU-MIB::dpduIdentPDUFirmwareVersion.1 	(.1.3.6.1.4.1.2254.2.32.1.6.1.5.1) = 	STRING: "00"
DeltaPDU-MIB::dpduIdentPDUName.1 	(.1.3.6.1.4.1.2254.2.32.1.6.1.6.1) = 	""
DeltaPDU-MIB::dpduIdentPDUAttachedDevices.1 	(.1.3.6.1.4.1.2254.2.32.1.6.1.7.1) = 	""
DeltaPDU-MIB::dpduOutputPDUID.1 	(.1.3.6.1.4.1.2254.2.32.2.1.1.1.1) = 	INTEGER: 0
DeltaPDU-MIB::dpduOutputFrequency.1 	(.1.3.6.1.4.1.2254.2.32.2.1.1.2.1) = 	INTEGER: 499 0.1 Hertz
!!! Name DeltaPDU-MIB::dpduOutputVoltage1.1 and OID .1.3.6.1.4.1.2254.2.32.2.1.1.3.1 (INTEGER: 2275 0.1 V != INTEGER: 2276 0.1 V)
DeltaPDU-MIB::dpduOutputCurrent1.1 	(.1.3.6.1.4.1.2254.2.32.2.1.1.4.1) = 	INTEGER: 15 0.1 A
DeltaPDU-MIB::dpduOutputVoltage2.1 	(.1.3.6.1.4.1.2254.2.32.2.1.1.5.1) = 	INTEGER: 2274 0.1 V
DeltaPDU-MIB::dpduOutputCurrent2.1 	(.1.3.6.1.4.1.2254.2.32.2.1.1.6.1) = 	INTEGER: 75 0.1 A
DeltaPDU-MIB::dpduOutputVoltage3.1 	(.1.3.6.1.4.1.2254.2.32.2.1.1.7.1) = 	INTEGER: 0 0.1 V
DeltaPDU-MIB::dpduOutputCurrent3.1 	(.1.3.6.1.4.1.2254.2.32.2.1.1.8.1) = 	INTEGER: 0 0.1 A
DeltaPDU-MIB::dpduOutputWattage1.1 	(.1.3.6.1.4.1.2254.2.32.2.1.1.9.1) = 	INTEGER: 0 1 Watt
DeltaPDU-MIB::dpduOutputEnergy1.1 	(.1.3.6.1.4.1.2254.2.32.2.1.1.10.1) = 	INTEGER: 0 0.1 kWh
DeltaPDU-MIB::dpduOutputWattage2.1 	(.1.3.6.1.4.1.2254.2.32.2.1.1.11.1) = 	INTEGER: 0 1 Watt
DeltaPDU-MIB::dpduOutputEnergy2.1 	(.1.3.6.1.4.1.2254.2.32.2.1.1.12.1) = 	INTEGER: 0 0.1 kWh
DeltaPDU-MIB::dpduOutputWattage3.1 	(.1.3.6.1.4.1.2254.2.32.2.1.1.13.1) = 	INTEGER: 0 1 Watt
DeltaPDU-MIB::dpduOutputEnergy3.1 	(.1.3.6.1.4.1.2254.2.32.2.1.1.14.1) = 	INTEGER: 0 0.1 kWh
DeltaPDU-MIB::dpduOutputWattageTotal.1 	(.1.3.6.1.4.1.2254.2.32.2.1.1.15.1) = 	INTEGER: 0 1 Watt
DeltaPDU-MIB::dpduOutputEnergyTotal.1 	(.1.3.6.1.4.1.2254.2.32.2.1.1.16.1) = 	INTEGER: 0 0.1 kWh
DeltaPDU-MIB::dpduOutputEntry.17.1 	(.1.3.6.1.4.1.2254.2.32.2.1.1.17.1) = 	INTEGER: 0
DeltaPDU-MIB::dpduOutputEntry.18.1 	(.1.3.6.1.4.1.2254.2.32.2.1.1.18.1) = 	INTEGER: 0
DeltaPDU-MIB::dpduOutputEntry.19.1 	(.1.3.6.1.4.1.2254.2.32.2.1.1.19.1) = 	INTEGER: 0
DeltaPDU-MIB::dpduOutputEntry.20.1 	(.1.3.6.1.4.1.2254.2.32.2.1.1.20.1) = 	INTEGER: 0
DeltaPDU-MIB::dpduOutputEntry.21.1 	(.1.3.6.1.4.1.2254.2.32.2.1.1.21.1) = 	INTEGER: 0
DeltaPDU-MIB::dpduOutputEntry.22.1 	(.1.3.6.1.4.1.2254.2.32.2.1.1.22.1) = 	INTEGER: 0
DeltaPDU-MIB::dpduOutputEntry.23.1 	(.1.3.6.1.4.1.2254.2.32.2.1.1.23.1) = 	INTEGER: 0
DeltaPDU-MIB::dpduOutputEntry.24.1 	(.1.3.6.1.4.1.2254.2.32.2.1.1.24.1) = 	INTEGER: 0
DeltaPDU-MIB::dpduOutputEntry.25.1 	(.1.3.6.1.4.1.2254.2.32.2.1.1.25.1) = 	INTEGER: 0
DeltaPDU-MIB::dpduOutputEntry.26.1 	(.1.3.6.1.4.1.2254.2.32.2.1.1.26.1) = 	INTEGER: 0
DeltaPDU-MIB::dpduOutputEntry.27.1 	(.1.3.6.1.4.1.2254.2.32.2.1.1.27.1) = 	INTEGER: 0
DeltaPDU-MIB::dpduOutputEntry.28.1 	(.1.3.6.1.4.1.2254.2.32.2.1.1.28.1) = 	INTEGER: 0
DeltaPDU-MIB::dpduOutputEntry.29.1 	(.1.3.6.1.4.1.2254.2.32.2.1.1.29.1) = 	INTEGER: 0
DeltaPDU-MIB::dpduOutputEntry.30.1 	(.1.3.6.1.4.1.2254.2.32.2.1.1.30.1) = 	INTEGER: 0
DeltaPDU-MIB::dpduOutputEntry.31.1 	(.1.3.6.1.4.1.2254.2.32.2.1.1.31.1) = 	INTEGER: 0
DeltaPDU-MIB::dpduOutputEntry.32.1 	(.1.3.6.1.4.1.2254.2.32.2.1.1.32.1) = 	INTEGER: 0
DeltaPDU-MIB::dpduOutputEntry.33.1 	(.1.3.6.1.4.1.2254.2.32.2.1.1.33.1) = 	INTEGER: 0
DeltaPDU-MIB::dpduOutputEntry.34.1 	(.1.3.6.1.4.1.2254.2.32.2.1.1.34.1) = 	INTEGER: 0
DeltaPDU-MIB::dpduOutputEntry.35.1 	(.1.3.6.1.4.1.2254.2.32.2.1.1.35.1) = 	INTEGER: 15
DeltaPDU-MIB::dpduOutputEntry.36.1 	(.1.3.6.1.4.1.2254.2.32.2.1.1.36.1) = 	INTEGER: 75
DeltaPDU-MIB::dpduOutputEntry.37.1 	(.1.3.6.1.4.1.2254.2.32.2.1.1.37.1) = 	INTEGER: 0
DeltaPDU-MIB::dpduOutputEntry.38.1 	(.1.3.6.1.4.1.2254.2.32.2.1.1.38.1) = 	INTEGER: 90
DeltaPDU-MIB::dpduOutputEntry.39.1 	(.1.3.6.1.4.1.2254.2.32.2.1.1.39.1) = 	INTEGER: 0
DeltaPDU-MIB::dpduOutputEntry.40.1 	(.1.3.6.1.4.1.2254.2.32.2.1.1.40.1) = 	INTEGER: 0
DeltaPDU-MIB::dpduOutputEntry.41.1 	(.1.3.6.1.4.1.2254.2.32.2.1.1.41.1) = 	INTEGER: 0
DeltaPDU-MIB::dpduAlarmPDUID.1 	(.1.3.6.1.4.1.2254.2.32.3.1.1.1.1) = 	INTEGER: 0
DeltaPDU-MIB::dpduAlarmDisconnect.1 	(.1.3.6.1.4.1.2254.2.32.3.1.1.2.1) = 	INTEGER: off(2)
DeltaPDU-MIB::dpduAlarmL1LoadMajor.1 	(.1.3.6.1.4.1.2254.2.32.3.1.1.3.1) = 	INTEGER: off(2)
DeltaPDU-MIB::dpduAlarmL1LoadMinor.1 	(.1.3.6.1.4.1.2254.2.32.3.1.1.4.1) = 	INTEGER: off(2)
DeltaPDU-MIB::dpduAlarmL1OutVoltMajor.1 	(.1.3.6.1.4.1.2254.2.32.3.1.1.5.1) = 	INTEGER: off(2)
DeltaPDU-MIB::dpduAlarmL1OutVoltMinor.1 	(.1.3.6.1.4.1.2254.2.32.3.1.1.6.1) = 	INTEGER: off(2)
DeltaPDU-MIB::dpduAlarmL2LoadMajor.1 	(.1.3.6.1.4.1.2254.2.32.3.1.1.7.1) = 	INTEGER: off(2)
DeltaPDU-MIB::dpduAlarmL2LoadMinor.1 	(.1.3.6.1.4.1.2254.2.32.3.1.1.8.1) = 	INTEGER: off(2)
DeltaPDU-MIB::dpduAlarmL2OutVoltMajor.1 	(.1.3.6.1.4.1.2254.2.32.3.1.1.9.1) = 	INTEGER: off(2)
DeltaPDU-MIB::dpduAlarmL2OutVoltMinor.1 	(.1.3.6.1.4.1.2254.2.32.3.1.1.10.1) = 	INTEGER: off(2)
DeltaPDU-MIB::dpduAlarmL3LoadMajor.1 	(.1.3.6.1.4.1.2254.2.32.3.1.1.11.1) = 	INTEGER: off(2)
DeltaPDU-MIB::dpduAlarmL3LoadMinor.1 	(.1.3.6.1.4.1.2254.2.32.3.1.1.12.1) = 	INTEGER: off(2)
DeltaPDU-MIB::dpduAlarmL3OutVoltMajor.1 	(.1.3.6.1.4.1.2254.2.32.3.1.1.13.1) = 	INTEGER: off(2)
DeltaPDU-MIB::dpduAlarmL3OutVoltMinor.1 	(.1.3.6.1.4.1.2254.2.32.3.1.1.14.1) = 	INTEGER: off(2)
DeltaPDU-MIB::dpduAlarmL12LoadMajor.1 	(.1.3.6.1.4.1.2254.2.32.3.1.1.15.1) = 	INTEGER: off(2)
DeltaPDU-MIB::dpduAlarmL12LoadMinor.1 	(.1.3.6.1.4.1.2254.2.32.3.1.1.16.1) = 	INTEGER: off(2)
DeltaPDU-MIB::dpduAlarmEntry.17.1 	(.1.3.6.1.4.1.2254.2.32.3.1.1.17.1) = 	INTEGER: 2
DeltaPDU-MIB::dpduAlarmEntry.18.1 	(.1.3.6.1.4.1.2254.2.32.3.1.1.18.1) = 	INTEGER: 2
DeltaPDU-MIB::dpduAlarmEntry.19.1 	(.1.3.6.1.4.1.2254.2.32.3.1.1.19.1) = 	INTEGER: 2
DeltaPDU-MIB::dpduAlarmEntry.20.1 	(.1.3.6.1.4.1.2254.2.32.3.1.1.20.1) = 	INTEGER: 2
DeltaPDU-MIB::dpduAlarmEntry.21.1 	(.1.3.6.1.4.1.2254.2.32.3.1.1.21.1) = 	INTEGER: 2
DeltaPDU-MIB::dpduAlarmEntry.22.1 	(.1.3.6.1.4.1.2254.2.32.3.1.1.22.1) = 	INTEGER: 2
DeltaPDU-MIB::dpduAlarmEntry.23.1 	(.1.3.6.1.4.1.2254.2.32.3.1.1.23.1) = 	INTEGER: 2
DeltaPDU-MIB::dpduAlarmEntry.24.1 	(.1.3.6.1.4.1.2254.2.32.3.1.1.24.1) = 	INTEGER: 2
DeltaPDU-MIB::dpduAlarmEntry.25.1 	(.1.3.6.1.4.1.2254.2.32.3.1.1.25.1) = 	INTEGER: 2
DeltaPDU-MIB::dpduAlarmEntry.26.1 	(.1.3.6.1.4.1.2254.2.32.3.1.1.26.1) = 	INTEGER: 2
DeltaPDU-MIB::dpduAlarmEntry.27.1 	(.1.3.6.1.4.1.2254.2.32.3.1.1.27.1) = 	INTEGER: 2
DeltaPDU-MIB::dpduAlarmEntry.28.1 	(.1.3.6.1.4.1.2254.2.32.3.1.1.28.1) = 	INTEGER: 2
DeltaPDU-MIB::dpduAlarmEntry.29.1 	(.1.3.6.1.4.1.2254.2.32.3.1.1.29.1) = 	INTEGER: 2
DeltaPDU-MIB::dpduAlarmEntry.30.1 	(.1.3.6.1.4.1.2254.2.32.3.1.1.30.1) = 	INTEGER: 2
DeltaPDU-MIB::dpduAlarmEntry.31.1 	(.1.3.6.1.4.1.2254.2.32.3.1.1.31.1) = 	INTEGER: 2
DeltaPDU-MIB::dpduAlarmEntry.32.1 	(.1.3.6.1.4.1.2254.2.32.3.1.1.32.1) = 	INTEGER: 2
DeltaPDU-MIB::dpduAlarmEntry.33.1 	(.1.3.6.1.4.1.2254.2.32.3.1.1.33.1) = 	INTEGER: 2
DeltaPDU-MIB::dpduAlarmEntry.34.1 	(.1.3.6.1.4.1.2254.2.32.3.1.1.34.1) = 	INTEGER: 2
DeltaPDU-MIB::dpduAlarmEntry.35.1 	(.1.3.6.1.4.1.2254.2.32.3.1.1.35.1) = 	INTEGER: 2
DeltaPDU-MIB::dpduAlarmEntry.36.1 	(.1.3.6.1.4.1.2254.2.32.3.1.1.36.1) = 	INTEGER: 2
DeltaPDU-MIB::dpduAlarmEntry.37.1 	(.1.3.6.1.4.1.2254.2.32.3.1.1.37.1) = 	INTEGER: 2
DeltaPDU-MIB::dpduAlarmEntry.38.1 	(.1.3.6.1.4.1.2254.2.32.3.1.1.38.1) = 	INTEGER: 2
DeltaPDU-MIB::dpduAlarmEntry.39.1 	(.1.3.6.1.4.1.2254.2.32.3.1.1.39.1) = 	INTEGER: 2
DeltaPDU-MIB::dpduAlarmEntry.40.1 	(.1.3.6.1.4.1.2254.2.32.3.1.1.40.1) = 	INTEGER: 2
DeltaPDU-MIB::dpduAlarmEntry.41.1 	(.1.3.6.1.4.1.2254.2.32.3.1.1.41.1) = 	INTEGER: 2
DeltaPDU-MIB::dpduAlarmEntry.42.1 	(.1.3.6.1.4.1.2254.2.32.3.1.1.42.1) = 	INTEGER: 2
DeltaPDU-MIB::dpduAlarmEntry.43.1 	(.1.3.6.1.4.1.2254.2.32.3.1.1.43.1) = 	INTEGER: 2
